{
  "project_info": {
    "project_number": "469491350315",
    "firebase_url": "https://banana-notifies-db.firebaseio.com",
    "project_id": "banana-notifies-db",
    "storage_bucket": "banana-notifies-db.appspot.com"
  },
  "client": [
    {
      "client_info": {
        "mobilesdk_app_id": "1:469491350315:android:b1d7c6a701a2ab674c636e",
        "android_client_info": {
          "package_name": "slu.edu"
        }
      },
      "oauth_client": [
        {
          "client_id": "469491350315-b42ni72o01vn1v0mjujfvdkb37sis6am.apps.googleusercontent.com",
          "client_type": 3
        }
      ],
      "api_key": [
        {
          "current_key": "AIzaSyD_tYOdyCqnlgKWXIODucQopHrYH_IZEzM"
        }
      ],
      "services": {
        "appinvite_service": {
          "other_platform_oauth_client": [
            {
              "client_id": "469491350315-b42ni72o01vn1v0mjujfvdkb37sis6am.apps.googleusercontent.com",
              "client_type": 3
            }
          ]
        }
      }
    }
  ],
  "configuration_version": "1"
}